Pilot Study Analysis: The Compatibility Effect between Physical Stimulus Size and Left-Right Responses
…
This analysis script is largely based on the internet tutorial, which you can find here: [https://www.scribbr.com/statistics/anova-in-r/].

0. Setting up the required packages

1. Load in the data.

We here laod in the raw data by our 3 participants gathered in the pilot study of our experiment (and bind them together to one data frame).

# Load in the data from the pilot study
comp_raw <- read_csv("/Users/florian/Documents/Studium/Semester_4/Experimental Psychology Lab/Final_Project/data/compatibility_raw.csv")

# Let's have a look at the raw data set (the "key1" values should not be logical "FALSE" but character data type: "f")
comp_raw

## # A tibble: 4,800 x 24
##    submission_id Mapping    RT   age comments correctness education endTime
##            <dbl> <chr>   <dbl> <dbl> <chr>    <chr>       <chr>       <dbl>
##  1          1984 incomp…  3240    66 <NA>     correct     Graduate… 1.60e12
##  2          1984 incomp…   675    66 <NA>     correct     Graduate… 1.60e12
##  3          1984 incomp…   957    66 <NA>     correct     Graduate… 1.60e12
##  4          1984 incomp…   390    66 <NA>     correct     Graduate… 1.60e12
##  5          1984 incomp…   511    66 <NA>     correct     Graduate… 1.60e12
##  6          1984 incomp…   691    66 <NA>     correct     Graduate… 1.60e12
##  7          1984 incomp…   604    66 <NA>     correct     Graduate… 1.60e12
##  8          1984 incomp…   595    66 <NA>     correct     Graduate… 1.60e12
##  9          1984 incomp…   456    66 <NA>     correct     Graduate… 1.60e12
## 10          1984 incomp…   675    66 <NA>     correct     Graduate… 1.60e12
## # … with 4,790 more rows, and 16 more variables: expected <chr>,
## #   experiment_id <dbl>, f <chr>, gender <chr>, handedness <chr>, j <chr>,
## #   key1 <lgl>, key2 <chr>, key_pressed <chr>, languages <chr>, picture <chr>,
## #   startDate <chr>, startTime <dbl>, timeSpent <dbl>, trial_number <dbl>,
## #   trial_type <chr>
…
# Change key name to response location
for (i in 1:length(comp_data$response)) {
  if(comp_data$response[i] == "j") {
    comp_data$response[i] <- "right"
  } else {
    comp_data$response[i] <- "left"
  }
}

comp_data

## # A tibble: 3,357 x 8
##    submission_id trial_type response mapping correctness    RT handedness
##            <dbl> <chr>      <chr>    <chr>   <chr>       <dbl> <chr>     
##  1          1984 main       left     incomp… correct       689 right     
##  2          1984 main       left     incomp… correct       764 right     
##  3          1984 main       right    incomp… correct       641 right     
##  4          1984 main       left     incomp… correct       628 right     
##  5          1984 main       right    incomp… correct       441 right     
##  6          1984 main       left     incomp… correct       553 right     
##  7          1984 main       left     incomp… correct       835 right     
##  8          1984 main       right    incomp… correct       493 right     
##  9          1984 main       right    incomp… correct       609 right     
## 10          1984 main       left     incomp… correct       402 right     
## # … with 3,347 more rows, and 1 more variable: time_spent <dbl>
…
