Pilot Study Analysis: The Compatibility Effect between Physical Stimulus Size and Left-Right Responses
…
# Load in the data from the pilot study
comp_pilot_1_raw <- read_csv("/Users/florian/Documents/Studium/Semester_4/Experimental Psychology Lab/Final_Project/data/pilot_1.csv")
comp_pilot_2_raw <- read_csv("/Users/florian/Documents/Studium/Semester_4/Experimental Psychology Lab/Final_Project/data/pilot_2.csv")
comp_pilot_3_raw <- read_csv("/Users/florian/Documents/Studium/Semester_4/Experimental Psychology Lab/Final_Project/data/pilot_3.csv")

# Add participant ID
comp_pilot_1_raw <- comp_pilot_1_raw %>% mutate(subject_id = rep(c(1), length(comp_pilot_1_raw$RT)))
comp_pilot_2_raw <- comp_pilot_2_raw %>% mutate(subject_id = rep(c(2), length(comp_pilot_2_raw$RT)))
comp_pilot_3_raw <- comp_pilot_3_raw %>% mutate(subject_id = rep(c(3), length(comp_pilot_3_raw$RT)))

# Bind data together
comp_pilot_raw <- rbind(comp_pilot_1_raw, comp_pilot_2_raw, comp_pilot_3_raw)
comp_pilot_raw

## # A tibble: 450 x 25
##    trial_type trial_number key_pressed correctness    RT picture key1  key2 
##    <chr>             <dbl> <chr>       <chr>       <dbl> <chr>   <lgl> <chr>
##  1 practice              1 f           correct      3063 images… FALSE j    
##  2 practice              2 f           correct      3123 images… FALSE j    
##  3 practice              3 j           correct      2911 images… FALSE j    
##  4 practice              4 f           correct      2828 images… FALSE j    
##  5 practice              5 j           correct      2978 images… FALSE j    
##  6 practice              6 f           correct      2927 images… FALSE j    
##  7 practice              7 j           correct      2947 images… FALSE j    
##  8 practice              8 j           correct      2891 images… FALSE j    
##  9 practice              9 j           correct      2907 images… FALSE j    
## 10 practice             10 f           correct      3041 images… FALSE j    
## # … with 440 more rows, and 17 more variables: f <chr>, j <chr>,
## #   expected <chr>, Mapping <chr>, startDate <chr>, startTime <dbl>, age <dbl>,
## #   gender <chr>, handedness <chr>, education <chr>, languages <chr>,
## #   comments <chr>, endTime <dbl>, timeSpent <dbl>, experiment_id <chr>,
## #   X24 <lgl>, subject_id <dbl>
…
# Change key name to response location
for (i in 1:length(comp_pilot_data$response)) {
  if(comp_pilot_data$response[i] == "j") {
    comp_pilot_data$response[i] <- "right"
  } else {
    comp_pilot_data$response[i] <- "left"
  }
}

comp_pilot_data

## # A tibble: 347 x 8
##    subject_id trial_type response mapping correctness    RT handedness
##         <dbl> <chr>      <chr>    <chr>   <chr>       <dbl> <chr>     
##  1          1 main       left     compat… correct       600 right     
##  2          1 main       left     compat… correct       449 right     
##  3          1 main       right    compat… correct       468 right     
##  4          1 main       right    compat… correct       499 right     
##  5          1 main       left     compat… correct       452 right     
##  6          1 main       right    compat… correct       436 right     
##  7          1 main       left     compat… correct       565 right     
##  8          1 main       right    compat… correct       340 right     
##  9          1 main       right    compat… correct       475 right     
## 10          1 main       right    compat… correct       581 right     
## # … with 337 more rows, and 1 more variable: time_spent <dbl>
…
